anom	id
offp	101
speed	153
speed	174
speed	176
buturn	189
offp	161
speed	202
buturn	177
lane	195
buturn	226
lane	227
buturn	262
speed	269
spsl	270
speed	273
buturn	272
lane	146
speed	312
buturn	320
buturn	322
buturn	313
buturn	325
speed	326
buturn	316
offp	326
offp	290
offp	330
offp	332
lane	246
offp	324
speed	351
lane	263
buturn	358
slow	368
lane	368
speed	370
lane	293
speed	377
speed	388
buturn	385
buturn	399
buturn	402
offp	425
lane	235
lane	336
speed	433
offp	346
offp	435
speed	447
spsl	448
speed	454
lane	213
speed	455
lane	376
buturn	457
speed	464
lane	440
slow	470
buturn	474
speed	482
offp	472
buturn	490
speed	519
speed	522
lane	478
offp	469
lane	531
buturn	540
offp	503
lane	509
speed	562
speed	565
spsl	570
speed	573
spsl	575
offp	548
speed	581
lane	511
spsl	595
lane	582
buturn	615
lane	567
speed	626
buturn	628
lane	609
lane	629
lane	575
speed	670
speed	674
speed	675
lane	474
lane	497
buturn	690
slow	693
buturn	696
spsl	699
offp	701
speed	703
speed	718
lane	664
buturn	729
speed	731
buturn	723
speed	735
speed	736
offp	741
offp	720
offp	748
lane	758
speed	768
speed	800
speed	801
lane	751
speed	812
lane	738
offp	771
speed	831
speed	839
speed	851
offp	787
buturn	861
speed	862
buturn	870
speed	893
spsl	895
speed	895
slow	908
lane	908
buturn	912
speed	924
lane	924
buturn	925
speed	939
speed	957
slow	966
speed	971
speed	984
offp	984
speed	990
lane	880
buturn	1010
speed	1014
lane	953
lane	1028
slow	1038
offp	972
offp	1045
buturn	1058
offp	1046
lane	1029
offp	1061
speed	1096
speed	1097
offp	1048
slow	1127
speed	1136
speed	1144
spsl	1144
speed	1152
offp	1147
lane	1090
lane	1101
speed	1158
offp	1100
lane	1102
lane	1112
speed	1207
offp	1207
lane	1193
buturn	1218
buturn	1219
offp	1239
lane	1108
offp	1158
speed	1250
offp	1217
offp	1267
buturn	1270
buturn	1279
offp	1285
offp	1476
offp	1485
offp	1505
speed	1776
offp	1809
offp	1850
speed	1978
speed	2122
